A method for semiparametric estimation of increased limit factors
…
Now well select the columns to be in the form that might exist in a claims system,
where we just have the claim and claimant ids, the limits, and the limited loss amount
for the claimant.

claim_data <- claim_limit_round %>%
  select(claim_id, claimant_id, limit_desc = limit, limit_1, limit_2, loss = loss_limit_2)

Lets look at a few rows of the data.

claim_data

## # A tibble: 99,748 x 6
##    claim_id claimant_id limit_desc limit_1 limit_2  loss
##       <int>       <int> <chr>        <dbl>   <dbl> <dbl>
##  1        1           1 25/50        25000   50000 20813
##  2        1           2 25/50        25000   50000  7599
##  3        2           1 300/500     300000  500000 24502
##  4        2           2 300/500     300000  500000 11290
##  5        2           3 300/500     300000  500000 13808
##  6        2           4 300/500     300000  500000 10572
##  7        3           1 300K CSL    300000  300000  5255
##  8        3           2 300K CSL    300000  300000  3976
##  9        4           1 25/50        25000   50000  2821
## 10        4           2 25/50        25000   50000  3092
## #  with 99,738 more rows
…
